<svg width="16" height="16" viewBox="0 0 16 16" fill="none" xmlns="http://www.w3.org/2000/svg">
<path fill-rule="evenodd" clip-rule="evenodd" d="M9.62183 14.7065L15.3449 8.68673C15.7119 8.30069 15.7119 7.69473 15.3449 7.30869L9.62183 1.28888C9.25504 0.905661 8.6489 0.901755 8.27838 1.28888C7.90527 1.67871 7.9086 2.30272 8.28004 2.6908L13.3164 7.99771L8.28004 13.3046C7.91325 13.6878 7.90785 14.3194 8.27838 14.7065C8.65149 15.0964 9.25039 15.0946 9.62183 14.7065Z" fill="#D4D0D9"/>
</svg>
